%YAML 1.1
%TAG !u! tag:unity3d.com,2011:
--- !u!29 &1
OcclusionCullingSettings:
  m_ObjectHideFlags: 0
  serializedVersion: 2
  m_OcclusionBakeSettings:
    smallestOccluder: 5
    smallestHole: 0.25
    backfaceThreshold: 100
  m_SceneGUID: 00000000000000000000000000000000
  m_OcclusionCullingData: {fileID: 0}
--- !u!104 &2
RenderSettings:
  m_ObjectHideFlags: 0
  serializedVersion: 9
  m_Fog: 0
  m_FogColor: {r: 0.5, g: 0.5, b: 0.5, a: 1}
  m_FogMode: 3
  m_FogDensity: 0.01
  m_LinearFogStart: 0
  m_LinearFogEnd: 300
  m_AmbientSkyColor: {r: 0.212, g: 0.227, b: 0.259, a: 1}
  m_AmbientEquatorColor: {r: 0.114, g: 0.125, b: 0.133, a: 1}
  m_AmbientGroundColor: {r: 0.047, g: 0.043, b: 0.035, a: 1}
  m_AmbientIntensity: 1
  m_AmbientMode: 3
  m_SubtractiveShadowColor: {r: 0.42, g: 0.478, b: 0.627, a: 1}
  m_SkyboxMaterial: {fileID: 0}
  m_HaloStrength: 0.5
  m_FlareStrength: 1
  m_FlareFadeSpeed: 3
  m_HaloTexture: {fileID: 0}
  m_SpotCookie: {fileID: 10001, guid: 0000000000000000e000000000000000, type: 0}
  m_DefaultReflectionMode: 0
  m_DefaultReflectionResolution: 128
  m_ReflectionBounces: 1
  m_ReflectionIntensity: 1
  m_CustomReflection: {fileID: 0}
  m_Sun: {fileID: 0}
  m_IndirectSpecularColor: {r: 0, g: 0, b: 0, a: 1}
  m_UseRadianceAmbientProbe: 0
--- !u!157 &3
LightmapSettings:
  m_ObjectHideFlags: 0
  serializedVersion: 11
  m_GIWorkflowMode: 1
  m_GISettings:
    serializedVersion: 2
    m_BounceScale: 1
    m_IndirectOutputScale: 1
    m_AlbedoBoost: 1
    m_TemporalCoherenceThreshold: 1
    m_EnvironmentLightingMode: 0
    m_EnableBakedLightmaps: 0
    m_EnableRealtimeLightmaps: 0
  m_LightmapEditorSettings:
    serializedVersion: 10
    m_Resolution: 2
    m_BakeResolution: 40
    m_AtlasSize: 1024
    m_AO: 0
    m_AOMaxDistance: 1
    m_CompAOExponent: 1
    m_CompAOExponentDirect: 0
    m_Padding: 2
    m_LightmapParameters: {fileID: 0}
    m_LightmapsBakeMode: 1
    m_TextureCompression: 1
    m_FinalGather: 0
    m_FinalGatherFiltering: 1
    m_FinalGatherRayCount: 256
    m_ReflectionCompression: 2
    m_MixedBakeMode: 2
    m_BakeBackend: 0
    m_PVRSampling: 1
    m_PVRDirectSampleCount: 32
    m_PVRSampleCount: 500
    m_PVRBounces: 2
    m_PVRFilterTypeDirect: 0
    m_PVRFilterTypeIndirect: 0
    m_PVRFilterTypeAO: 0
    m_PVRFilteringMode: 1
    m_PVRCulling: 1
    m_PVRFilteringGaussRadiusDirect: 1
    m_PVRFilteringGaussRadiusIndirect: 5
    m_PVRFilteringGaussRadiusAO: 2
    m_PVRFilteringAtrousPositionSigmaDirect: 0.5
    m_PVRFilteringAtrousPositionSigmaIndirect: 2
    m_PVRFilteringAtrousPositionSigmaAO: 1
    m_ShowResolutionOverlay: 1
  m_LightingDataAsset: {fileID: 0}
  m_UseShadowmask: 1
--- !u!196 &4
NavMeshSettings:
  serializedVersion: 2
  m_ObjectHideFlags: 0
  m_BuildSettings:
    serializedVersion: 2
    agentTypeID: 0
    agentRadius: 0.5
    agentHeight: 2
    agentSlope: 45
    agentClimb: 0.4
    ledgeDropHeight: 0
    maxJumpAcrossDistance: 0
    minRegionArea: 2
    manualCellSize: 0
    cellSize: 0.16666667
    manualTileSize: 0
    tileSize: 256
    accuratePlacement: 0
    debug:
      m_Flags: 0
  m_NavMeshData: {fileID: 0}
--- !u!1001 &152240096
Prefab:
  m_ObjectHideFlags: 0
  serializedVersion: 2
  m_Modification:
    m_TransformParent: {fileID: 1032386060}
    m_Modifications:
    - target: {fileID: 114866056047139538, guid: 8f569e837df7b6b4eb1a443ba50fff62,
        type: 2}
      propertyPath: m_OnClick.m_PersistentCalls.m_Calls.Array.size
      value: 1
      objectReference: {fileID: 0}
    - target: {fileID: 224035209889628444, guid: 8f569e837df7b6b4eb1a443ba50fff62,
        type: 2}
      propertyPath: m_LocalPosition.x
      value: 0
      objectReference: {fileID: 0}
    - target: {fileID: 224035209889628444, guid: 8f569e837df7b6b4eb1a443ba50fff62,
        type: 2}
      propertyPath: m_LocalPosition.y
      value: 0
      objectReference: {fileID: 0}
    - target: {fileID: 224035209889628444, guid: 8f569e837df7b6b4eb1a443ba50fff62,
        type: 2}
      propertyPath: m_LocalPosition.z
      value: 0
      objectReference: {fileID: 0}
    - target: {fileID: 224035209889628444, guid: 8f569e837df7b6b4eb1a443ba50fff62,
        type: 2}
      propertyPath: m_LocalRotation.x
      value: -0
      objectReference: {fileID: 0}
    - target: {fileID: 224035209889628444, guid: 8f569e837df7b6b4eb1a443ba50fff62,
        type: 2}
      propertyPath: m_LocalRotation.y
      value: -0
      objectReference: {fileID: 0}
    - target: {fileID: 224035209889628444, guid: 8f569e837df7b6b4eb1a443ba50fff62,
        type: 2}
      propertyPath: m_LocalRotation.z
      value: -0
      objectReference: {fileID: 0}
    - target: {fileID: 224035209889628444, guid: 8f569e837df7b6b4eb1a443ba50fff62,
        type: 2}
      propertyPath: m_LocalRotation.w
      value: 1
      objectReference: {fileID: 0}
    - target: {fileID: 224035209889628444, guid: 8f569e837df7b6b4eb1a443ba50fff62,
        type: 2}
      propertyPath: m_RootOrder
      value: 2
      objectReference: {fileID: 0}
    - target: {fileID: 224035209889628444, guid: 8f569e837df7b6b4eb1a443ba50fff62,
        type: 2}
      propertyPath: m_AnchoredPosition.x
      value: 690.65735
      objectReference: {fileID: 0}
    - target: {fileID: 224035209889628444, guid: 8f569e837df7b6b4eb1a443ba50fff62,
        type: 2}
      propertyPath: m_AnchoredPosition.y
      value: -69
      objectReference: {fileID: 0}
    - target: {fileID: 224035209889628444, guid: 8f569e837df7b6b4eb1a443ba50fff62,
        type: 2}
      propertyPath: m_SizeDelta.x
      value: 178
      objectReference: {fileID: 0}
    - target: {fileID: 224035209889628444, guid: 8f569e837df7b6b4eb1a443ba50fff62,
        type: 2}
      propertyPath: m_SizeDelta.y
      value: 40
      objectReference: {fileID: 0}
    - target: {fileID: 224035209889628444, guid: 8f569e837df7b6b4eb1a443ba50fff62,
        type: 2}
      propertyPath: m_AnchorMin.x
      value: 0
      objectReference: {fileID: 0}
    - target: {fileID: 224035209889628444, guid: 8f569e837df7b6b4eb1a443ba50fff62,
        type: 2}
      propertyPath: m_AnchorMin.y
      value: 1
      objectReference: {fileID: 0}
    - target: {fileID: 224035209889628444, guid: 8f569e837df7b6b4eb1a443ba50fff62,
        type: 2}
      propertyPath: m_AnchorMax.x
      value: 0
      objectReference: {fileID: 0}
    - target: {fileID: 224035209889628444, guid: 8f569e837df7b6b4eb1a443ba50fff62,
        type: 2}
      propertyPath: m_AnchorMax.y
      value: 1
      objectReference: {fileID: 0}
    - target: {fileID: 224035209889628444, guid: 8f569e837df7b6b4eb1a443ba50fff62,
        type: 2}
      propertyPath: m_Pivot.x
      value: 0.5
      objectReference: {fileID: 0}
    - target: {fileID: 224035209889628444, guid: 8f569e837df7b6b4eb1a443ba50fff62,
        type: 2}
      propertyPath: m_Pivot.y
      value: 0.5
      objectReference: {fileID: 0}
    - target: {fileID: 114420109816551794, guid: 8f569e837df7b6b4eb1a443ba50fff62,
        type: 2}
      propertyPath: m_Text
      value: SLIPPERY NOTIFICATION
      objectReference: {fileID: 0}
    - target: {fileID: 114992588607235212, guid: 8f569e837df7b6b4eb1a443ba50fff62,
        type: 2}
      propertyPath: m_Text
      value: SLIPPERY NOTIFICATION
      objectReference: {fileID: 0}
    - target: {fileID: 114866056047139538, guid: 8f569e837df7b6b4eb1a443ba50fff62,
        type: 2}
      propertyPath: m_OnClick.m_PersistentCalls.m_Calls.Array.data[0].m_Mode
      value: 1
      objectReference: {fileID: 0}
    - target: {fileID: 114866056047139538, guid: 8f569e837df7b6b4eb1a443ba50fff62,
        type: 2}
      propertyPath: m_OnClick.m_PersistentCalls.m_Calls.Array.data[0].m_CallState
      value: 2
      objectReference: {fileID: 0}
    - target: {fileID: 114866056047139538, guid: 8f569e837df7b6b4eb1a443ba50fff62,
        type: 2}
      propertyPath: m_OnClick.m_PersistentCalls.m_Calls.Array.data[0].m_Target
      value: 
      objectReference: {fileID: 1688343246}
    - target: {fileID: 114866056047139538, guid: 8f569e837df7b6b4eb1a443ba50fff62,
        type: 2}
      propertyPath: m_OnClick.m_PersistentCalls.m_Calls.Array.data[0].m_MethodName
      value: ShowNotification
      objectReference: {fileID: 0}
    - target: {fileID: 114866056047139538, guid: 8f569e837df7b6b4eb1a443ba50fff62,
        type: 2}
      propertyPath: m_OnClick.m_PersistentCalls.m_Calls.Array.data[0].m_Arguments.m_ObjectArgumentAssemblyTypeName
      value: UnityEngine.Object, UnityEngine
      objectReference: {fileID: 0}
    - target: {fileID: 1427455557309824, guid: 8f569e837df7b6b4eb1a443ba50fff62, type: 2}
      propertyPath: m_Name
      value: Slippery Button
      objectReference: {fileID: 0}
    - target: {fileID: 224035209889628444, guid: 8f569e837df7b6b4eb1a443ba50fff62,
        type: 2}
      propertyPath: m_LocalScale.x
      value: 1
      objectReference: {fileID: 0}
    - target: {fileID: 224035209889628444, guid: 8f569e837df7b6b4eb1a443ba50fff62,
        type: 2}
      propertyPath: m_LocalScale.y
      value: 1
      objectReference: {fileID: 0}
    - target: {fileID: 224035209889628444, guid: 8f569e837df7b6b4eb1a443ba50fff62,
        type: 2}
      propertyPath: m_LocalScale.z
      value: 1
      objectReference: {fileID: 0}
    m_RemovedComponents: []
  m_SourcePrefab: {fileID: 100100000, guid: 8f569e837df7b6b4eb1a443ba50fff62, type: 2}
  m_IsPrefabAsset: 0
--- !u!1001 &429444861
Prefab:
  m_ObjectHideFlags: 0
  serializedVersion: 2
  m_Modification:
    m_TransformParent: {fileID: 1032386060}
    m_Modifications:
    - target: {fileID: 114866056047139538, guid: 8f569e837df7b6b4eb1a443ba50fff62,
        type: 2}
      propertyPath: m_OnClick.m_PersistentCalls.m_Calls.Array.size
      value: 1
      objectReference: {fileID: 0}
    - target: {fileID: 224035209889628444, guid: 8f569e837df7b6b4eb1a443ba50fff62,
        type: 2}
      propertyPath: m_LocalPosition.x
      value: 0
      objectReference: {fileID: 0}
    - target: {fileID: 224035209889628444, guid: 8f569e837df7b6b4eb1a443ba50fff62,
        type: 2}
      propertyPath: m_LocalPosition.y
      value: 0
      objectReference: {fileID: 0}
    - target: {fileID: 224035209889628444, guid: 8f569e837df7b6b4eb1a443ba50fff62,
        type: 2}
      propertyPath: m_LocalPosition.z
      value: 0
      objectReference: {fileID: 0}
    - target: {fileID: 224035209889628444, guid: 8f569e837df7b6b4eb1a443ba50fff62,
        type: 2}
      propertyPath: m_LocalRotation.x
      value: -0
      objectReference: {fileID: 0}
    - target: {fileID: 224035209889628444, guid: 8f569e837df7b6b4eb1a443ba50fff62,
        type: 2}
      propertyPath: m_LocalRotation.y
      value: -0
      objectReference: {fileID: 0}
    - target: {fileID: 224035209889628444, guid: 8f569e837df7b6b4eb1a443ba50fff62,
        type: 2}
      propertyPath: m_LocalRotation.z
      value: -0
      objectReference: {fileID: 0}
    - target: {fileID: 224035209889628444, guid: 8f569e837df7b6b4eb1a443ba50fff62,
        type: 2}
      propertyPath: m_LocalRotation.w
      value: 1
      objectReference: {fileID: 0}
    - target: {fileID: 224035209889628444, guid: 8f569e837df7b6b4eb1a443ba50fff62,
        type: 2}
      propertyPath: m_RootOrder
      value: 1
      objectReference: {fileID: 0}
    - target: {fileID: 224035209889628444, guid: 8f569e837df7b6b4eb1a443ba50fff62,
        type: 2}
      propertyPath: m_AnchoredPosition.x
      value: 509.15735
      objectReference: {fileID: 0}
    - target: {fileID: 224035209889628444, guid: 8f569e837df7b6b4eb1a443ba50fff62,
        type: 2}
      propertyPath: m_AnchoredPosition.y
      value: -69
      objectReference: {fileID: 0}
    - target: {fileID: 224035209889628444, guid: 8f569e837df7b6b4eb1a443ba50fff62,
        type: 2}
      propertyPath: m_SizeDelta.x
      value: 165
      objectReference: {fileID: 0}
    - target: {fileID: 224035209889628444, guid: 8f569e837df7b6b4eb1a443ba50fff62,
        type: 2}
      propertyPath: m_SizeDelta.y
      value: 40
      objectReference: {fileID: 0}
    - target: {fileID: 224035209889628444, guid: 8f569e837df7b6b4eb1a443ba50fff62,
        type: 2}
      propertyPath: m_AnchorMin.x
      value: 0
      objectReference: {fileID: 0}
    - target: {fileID: 224035209889628444, guid: 8f569e837df7b6b4eb1a443ba50fff62,
        type: 2}
      propertyPath: m_AnchorMin.y
      value: 1
      objectReference: {fileID: 0}
    - target: {fileID: 224035209889628444, guid: 8f569e837df7b6b4eb1a443ba50fff62,
        type: 2}
      propertyPath: m_AnchorMax.x
      value: 0
      objectReference: {fileID: 0}
    - target: {fileID: 224035209889628444, guid: 8f569e837df7b6b4eb1a443ba50fff62,
        type: 2}
      propertyPath: m_AnchorMax.y
      value: 1
      objectReference: {fileID: 0}
    - target: {fileID: 224035209889628444, guid: 8f569e837df7b6b4eb1a443ba50fff62,
        type: 2}
      propertyPath: m_Pivot.x
      value: 0.5
      objectReference: {fileID: 0}
    - target: {fileID: 224035209889628444, guid: 8f569e837df7b6b4eb1a443ba50fff62,
        type: 2}
      propertyPath: m_Pivot.y
      value: 0.5
      objectReference: {fileID: 0}
    - target: {fileID: 114420109816551794, guid: 8f569e837df7b6b4eb1a443ba50fff62,
        type: 2}
      propertyPath: m_Text
      value: POPUP NOTIFICATION
      objectReference: {fileID: 0}
    - target: {fileID: 114992588607235212, guid: 8f569e837df7b6b4eb1a443ba50fff62,
        type: 2}
      propertyPath: m_Text
      value: POPUP NOTIFICATION
      objectReference: {fileID: 0}
    - target: {fileID: 114866056047139538, guid: 8f569e837df7b6b4eb1a443ba50fff62,
        type: 2}
      propertyPath: m_OnClick.m_PersistentCalls.m_Calls.Array.data[0].m_Mode
      value: 1
      objectReference: {fileID: 0}
    - target: {fileID: 114866056047139538, guid: 8f569e837df7b6b4eb1a443ba50fff62,
        type: 2}
      propertyPath: m_OnClick.m_PersistentCalls.m_Calls.Array.data[0].m_CallState
      value: 2
      objectReference: {fileID: 0}
    - target: {fileID: 114866056047139538, guid: 8f569e837df7b6b4eb1a443ba50fff62,
        type: 2}
      propertyPath: m_OnClick.m_PersistentCalls.m_Calls.Array.data[0].m_Target
      value: 
      objectReference: {fileID: 1839138673}
    - target: {fileID: 114866056047139538, guid: 8f569e837df7b6b4eb1a443ba50fff62,
        type: 2}
      propertyPath: m_OnClick.m_PersistentCalls.m_Calls.Array.data[0].m_MethodName
      value: ShowNotification
      objectReference: {fileID: 0}
    - target: {fileID: 114866056047139538, guid: 8f569e837df7b6b4eb1a443ba50fff62,
        type: 2}
      propertyPath: m_OnClick.m_PersistentCalls.m_Calls.Array.data[0].m_Arguments.m_ObjectArgumentAssemblyTypeName
      value: UnityEngine.Object, UnityEngine
      objectReference: {fileID: 0}
    - target: {fileID: 1427455557309824, guid: 8f569e837df7b6b4eb1a443ba50fff62, type: 2}
      propertyPath: m_Name
      value: Popup Button
      objectReference: {fileID: 0}
    - target: {fileID: 224035209889628444, guid: 8f569e837df7b6b4eb1a443ba50fff62,
        type: 2}
      propertyPath: m_LocalScale.x
      value: 1
      objectReference: {fileID: 0}
    - target: {fileID: 224035209889628444, guid: 8f569e837df7b6b4eb1a443ba50fff62,
        type: 2}
      propertyPath: m_LocalScale.y
      value: 1
      objectReference: {fileID: 0}
    - target: {fileID: 224035209889628444, guid: 8f569e837df7b6b4eb1a443ba50fff62,
        type: 2}
      propertyPath: m_LocalScale.z
      value: 1
      objectReference: {fileID: 0}
    m_RemovedComponents: []
  m_SourcePrefab: {fileID: 100100000, guid: 8f569e837df7b6b4eb1a443ba50fff62, type: 2}
  m_IsPrefabAsset: 0
--- !u!224 &443226600 stripped
RectTransform:
  m_CorrespondingSourceObject: {fileID: 224035209889628444, guid: 8f569e837df7b6b4eb1a443ba50fff62,
    type: 2}
  m_PrefabInternal: {fileID: 429444861}
--- !u!224 &453484758 stripped
RectTransform:
  m_CorrespondingSourceObject: {fileID: 224035209889628444, guid: 8f569e837df7b6b4eb1a443ba50fff62,
    type: 2}
  m_PrefabInternal: {fileID: 1297269712}
--- !u!114 &462579744 stripped
MonoBehaviour:
  m_CorrespondingSourceObject: {fileID: 114787276776182262, guid: d550d1b631b47924485fed63a06aca2e,
    type: 2}
  m_PrefabInternal: {fileID: 1695736642}
  m_Script: {fileID: 708705254, guid: f5f67c52d1564df4a8936ccd202a3bd8, type: 3}
--- !u!1 &493324189
GameObject:
  m_ObjectHideFlags: 0
  m_CorrespondingSourceObject: {fileID: 0}
  m_PrefabInternal: {fileID: 0}
  serializedVersion: 6
  m_Component:
  - component: {fileID: 493324190}
  - component: {fileID: 493324194}
  - component: {fileID: 493324193}
  - component: {fileID: 493324192}
  - component: {fileID: 493324191}
  m_Layer: 5
  m_Name: Canvas
  m_TagString: Untagged
  m_Icon: {fileID: 0}
  m_NavMeshLayer: 0
  m_StaticEditorFlags: 0
  m_IsActive: 1
--- !u!224 &493324190
RectTransform:
  m_ObjectHideFlags: 0
  m_CorrespondingSourceObject: {fileID: 0}
  m_PrefabInternal: {fileID: 0}
  m_GameObject: {fileID: 493324189}
  m_LocalRotation: {x: 0, y: 0, z: 0, w: 1}
  m_LocalPosition: {x: 0, y: 0, z: 0}
  m_LocalScale: {x: 0, y: 0, z: 0}
  m_Children:
  - {fileID: 1892554208}
  - {fileID: 1688343245}
  - {fileID: 807384817}
  - {fileID: 1839138672}
  - {fileID: 1030236187}
  - {fileID: 1032386060}
  m_Father: {fileID: 0}
  m_RootOrder: 2
  m_LocalEulerAnglesHint: {x: 0, y: 0, z: 0}
  m_AnchorMin: {x: 0, y: 0}
  m_AnchorMax: {x: 0, y: 0}
  m_AnchoredPosition: {x: 0, y: 0}
  m_SizeDelta: {x: 0, y: 0}
  m_Pivot: {x: 0, y: 0}
--- !u!222 &493324191
CanvasRenderer:
  m_ObjectHideFlags: 0
  m_CorrespondingSourceObject: {fileID: 0}
  m_PrefabInternal: {fileID: 0}
  m_GameObject: {fileID: 493324189}
  m_CullTransparentMesh: 0
--- !u!114 &493324192
MonoBehaviour:
  m_ObjectHideFlags: 0
  m_CorrespondingSourceObject: {fileID: 0}
  m_PrefabInternal: {fileID: 0}
  m_GameObject: {fileID: 493324189}
  m_Enabled: 1
  m_EditorHideFlags: 0
  m_Script: {fileID: 1301386320, guid: f70555f144d8491a825f0804e09c671c, type: 3}
  m_Name: 
  m_EditorClassIdentifier: 
  m_IgnoreReversedGraphics: 1
  m_BlockingObjects: 0
  m_BlockingMask:
    serializedVersion: 2
    m_Bits: 4294967295
--- !u!114 &493324193
MonoBehaviour:
  m_ObjectHideFlags: 0
  m_CorrespondingSourceObject: {fileID: 0}
  m_PrefabInternal: {fileID: 0}
  m_GameObject: {fileID: 493324189}
  m_Enabled: 1
  m_EditorHideFlags: 0
  m_Script: {fileID: 1980459831, guid: f70555f144d8491a825f0804e09c671c, type: 3}
  m_Name: 
  m_EditorClassIdentifier: 
  m_UiScaleMode: 1
  m_ReferencePixelsPerUnit: 100
  m_ScaleFactor: 1
  m_ReferenceResolution: {x: 1280, y: 720}
  m_ScreenMatchMode: 0
  m_MatchWidthOrHeight: 0.5
  m_PhysicalUnit: 3
  m_FallbackScreenDPI: 96
  m_DefaultSpriteDPI: 96
  m_DynamicPixelsPerUnit: 1
--- !u!223 &493324194
Canvas:
  m_ObjectHideFlags: 0
  m_CorrespondingSourceObject: {fileID: 0}
  m_PrefabInternal: {fileID: 0}
  m_GameObject: {fileID: 493324189}
  m_Enabled: 1
  serializedVersion: 3
  m_RenderMode: 0
  m_Camera: {fileID: 0}
  m_PlaneDistance: 100
  m_PixelPerfect: 0
  m_ReceivesEvents: 1
  m_OverrideSorting: 0
  m_OverridePixelPerfect: 0
  m_SortingBucketNormalizedSize: 0
  m_AdditionalShaderChannelsFlag: 0
  m_SortingLayerID: 0
  m_SortingOrder: 0
  m_TargetDisplay: 0
--- !u!1001 &616141318
Prefab:
  m_ObjectHideFlags: 0
  serializedVersion: 2
  m_Modification:
    m_TransformParent: {fileID: 493324190}
    m_Modifications:
    - target: {fileID: 224602918499771590, guid: 61db1f75e1a0bc84a9e6e1cffcd47b99,
        type: 2}
      propertyPath: m_LocalPosition.x
      value: 0
      objectReference: {fileID: 0}
    - target: {fileID: 224602918499771590, guid: 61db1f75e1a0bc84a9e6e1cffcd47b99,
        type: 2}
      propertyPath: m_LocalPosition.y
      value: 0
      objectReference: {fileID: 0}
    - target: {fileID: 224602918499771590, guid: 61db1f75e1a0bc84a9e6e1cffcd47b99,
        type: 2}
      propertyPath: m_LocalPosition.z
      value: 0
      objectReference: {fileID: 0}
    - target: {fileID: 224602918499771590, guid: 61db1f75e1a0bc84a9e6e1cffcd47b99,
        type: 2}
      propertyPath: m_LocalRotation.x
      value: -0
      objectReference: {fileID: 0}
    - target: {fileID: 224602918499771590, guid: 61db1f75e1a0bc84a9e6e1cffcd47b99,
        type: 2}
      propertyPath: m_LocalRotation.y
      value: -0
      objectReference: {fileID: 0}
    - target: {fileID: 224602918499771590, guid: 61db1f75e1a0bc84a9e6e1cffcd47b99,
        type: 2}
      propertyPath: m_LocalRotation.z
      value: -0
      objectReference: {fileID: 0}
    - target: {fileID: 224602918499771590, guid: 61db1f75e1a0bc84a9e6e1cffcd47b99,
        type: 2}
      propertyPath: m_LocalRotation.w
      value: 1
      objectReference: {fileID: 0}
    - target: {fileID: 224602918499771590, guid: 61db1f75e1a0bc84a9e6e1cffcd47b99,
        type: 2}
      propertyPath: m_RootOrder
      value: 3
      objectReference: {fileID: 0}
    - target: {fileID: 224602918499771590, guid: 61db1f75e1a0bc84a9e6e1cffcd47b99,
        type: 2}
      propertyPath: m_AnchoredPosition.x
      value: 0
      objectReference: {fileID: 0}
    - target: {fileID: 224602918499771590, guid: 61db1f75e1a0bc84a9e6e1cffcd47b99,
        type: 2}
      propertyPath: m_AnchoredPosition.y
      value: -30
      objectReference: {fileID: 0}
    - target: {fileID: 224602918499771590, guid: 61db1f75e1a0bc84a9e6e1cffcd47b99,
        type: 2}
      propertyPath: m_SizeDelta.x
      value: 175
      objectReference: {fileID: 0}
    - target: {fileID: 224602918499771590, guid: 61db1f75e1a0bc84a9e6e1cffcd47b99,
        type: 2}
      propertyPath: m_SizeDelta.y
      value: 60
      objectReference: {fileID: 0}
    - target: {fileID: 224602918499771590, guid: 61db1f75e1a0bc84a9e6e1cffcd47b99,
        type: 2}
      propertyPath: m_AnchorMin.x
      value: 0.5
      objectReference: {fileID: 0}
    - target: {fileID: 224602918499771590, guid: 61db1f75e1a0bc84a9e6e1cffcd47b99,
        type: 2}
      propertyPath: m_AnchorMin.y
      value: 1
      objectReference: {fileID: 0}
    - target: {fileID: 224602918499771590, guid: 61db1f75e1a0bc84a9e6e1cffcd47b99,
        type: 2}
      propertyPath: m_AnchorMax.x
      value: 0.5
      objectReference: {fileID: 0}
    - target: {fileID: 224602918499771590, guid: 61db1f75e1a0bc84a9e6e1cffcd47b99,
        type: 2}
      propertyPath: m_AnchorMax.y
      value: 1
      objectReference: {fileID: 0}
    - target: {fileID: 224602918499771590, guid: 61db1f75e1a0bc84a9e6e1cffcd47b99,
        type: 2}
      propertyPath: m_Pivot.x
      value: 0.5
      objectReference: {fileID: 0}
    - target: {fileID: 224602918499771590, guid: 61db1f75e1a0bc84a9e6e1cffcd47b99,
        type: 2}
      propertyPath: m_Pivot.y
      value: 0.5
      objectReference: {fileID: 0}
    - target: {fileID: 1350301964240770, guid: 61db1f75e1a0bc84a9e6e1cffcd47b99, type: 2}
      propertyPath: m_IsActive
      value: 1
      objectReference: {fileID: 0}
    - target: {fileID: 225140311986424838, guid: 61db1f75e1a0bc84a9e6e1cffcd47b99,
        type: 2}
      propertyPath: m_Alpha
      value: 1
      objectReference: {fileID: 0}
    - target: {fileID: 95651952683340316, guid: 61db1f75e1a0bc84a9e6e1cffcd47b99,
        type: 2}
      propertyPath: m_Controller
      value: 
      objectReference: {fileID: 9100000, guid: 77493be5b558eda4c99df85e6c9d4dec, type: 2}
    - target: {fileID: 1350301964240770, guid: 61db1f75e1a0bc84a9e6e1cffcd47b99, type: 2}
      propertyPath: m_Name
      value: Popup Notification
      objectReference: {fileID: 0}
    m_RemovedComponents: []
  m_SourcePrefab: {fileID: 100100000, guid: 61db1f75e1a0bc84a9e6e1cffcd47b99, type: 2}
  m_IsPrefabAsset: 0
--- !u!1001 &632612511
Prefab:
  m_ObjectHideFlags: 0
  serializedVersion: 2
  m_Modification:
    m_TransformParent: {fileID: 493324190}
    m_Modifications:
    - target: {fileID: 224794015048916152, guid: 460c5f7def2d0894692d5afd37d6eb19,
        type: 2}
      propertyPath: m_LocalPosition.x
      value: 0
      objectReference: {fileID: 0}
    - target: {fileID: 224794015048916152, guid: 460c5f7def2d0894692d5afd37d6eb19,
        type: 2}
      propertyPath: m_LocalPosition.y
      value: 0
      objectReference: {fileID: 0}
    - target: {fileID: 224794015048916152, guid: 460c5f7def2d0894692d5afd37d6eb19,
        type: 2}
      propertyPath: m_LocalPosition.z
      value: 0
      objectReference: {fileID: 0}
    - target: {fileID: 224794015048916152, guid: 460c5f7def2d0894692d5afd37d6eb19,
        type: 2}
      propertyPath: m_LocalRotation.x
      value: -0
      objectReference: {fileID: 0}
    - target: {fileID: 224794015048916152, guid: 460c5f7def2d0894692d5afd37d6eb19,
        type: 2}
      propertyPath: m_LocalRotation.y
      value: -0
      objectReference: {fileID: 0}
    - target: {fileID: 224794015048916152, guid: 460c5f7def2d0894692d5afd37d6eb19,
        type: 2}
      propertyPath: m_LocalRotation.z
      value: -0
      objectReference: {fileID: 0}
    - target: {fileID: 224794015048916152, guid: 460c5f7def2d0894692d5afd37d6eb19,
        type: 2}
      propertyPath: m_LocalRotation.w
      value: 1
      objectReference: {fileID: 0}
    - target: {fileID: 224794015048916152, guid: 460c5f7def2d0894692d5afd37d6eb19,
        type: 2}
      propertyPath: m_RootOrder
      value: 4
      objectReference: {fileID: 0}
    - target: {fileID: 224794015048916152, guid: 460c5f7def2d0894692d5afd37d6eb19,
        type: 2}
      propertyPath: m_AnchoredPosition.x
      value: 0
      objectReference: {fileID: 0}
    - target: {fileID: 224794015048916152, guid: 460c5f7def2d0894692d5afd37d6eb19,
        type: 2}
      propertyPath: m_AnchoredPosition.y
      value: -30
      objectReference: {fileID: 0}
    - target: {fileID: 224794015048916152, guid: 460c5f7def2d0894692d5afd37d6eb19,
        type: 2}
      propertyPath: m_SizeDelta.x
      value: 175
      objectReference: {fileID: 0}
    - target: {fileID: 224794015048916152, guid: 460c5f7def2d0894692d5afd37d6eb19,
        type: 2}
      propertyPath: m_SizeDelta.y
      value: 60
      objectReference: {fileID: 0}
    - target: {fileID: 224794015048916152, guid: 460c5f7def2d0894692d5afd37d6eb19,
        type: 2}
      propertyPath: m_AnchorMin.x
      value: 0.5
      objectReference: {fileID: 0}
    - target: {fileID: 224794015048916152, guid: 460c5f7def2d0894692d5afd37d6eb19,
        type: 2}
      propertyPath: m_AnchorMin.y
      value: 1
      objectReference: {fileID: 0}
    - target: {fileID: 224794015048916152, guid: 460c5f7def2d0894692d5afd37d6eb19,
        type: 2}
      propertyPath: m_AnchorMax.x
      value: 0.5
      objectReference: {fileID: 0}
    - target: {fileID: 224794015048916152, guid: 460c5f7def2d0894692d5afd37d6eb19,
        type: 2}
      propertyPath: m_AnchorMax.y
      value: 1
      objectReference: {fileID: 0}
    - target: {fileID: 224794015048916152, guid: 460c5f7def2d0894692d5afd37d6eb19,
        type: 2}
      propertyPath: m_Pivot.x
      value: 0.5
      objectReference: {fileID: 0}
    - target: {fileID: 224794015048916152, guid: 460c5f7def2d0894692d5afd37d6eb19,
        type: 2}
      propertyPath: m_Pivot.y
      value: 0.5
      objectReference: {fileID: 0}
    - target: {fileID: 1672687250203324, guid: 460c5f7def2d0894692d5afd37d6eb19, type: 2}
      propertyPath: m_IsActive
      value: 1
      objectReference: {fileID: 0}
    - target: {fileID: 225915968328216722, guid: 460c5f7def2d0894692d5afd37d6eb19,
        type: 2}
      propertyPath: m_Alpha
      value: 1
      objectReference: {fileID: 0}
    - target: {fileID: 95214273260916380, guid: 460c5f7def2d0894692d5afd37d6eb19,
        type: 2}
      propertyPath: m_Controller
      value: 
      objectReference: {fileID: 9100000, guid: d862b4bc5802b4647992ee8365a0f945, type: 2}
    - target: {fileID: 1672687250203324, guid: 460c5f7def2d0894692d5afd37d6eb19, type: 2}
      propertyPath: m_Name
      value: Slipping Notification
      objectReference: {fileID: 0}
    m_RemovedComponents: []
  m_SourcePrefab: {fileID: 100100000, guid: 460c5f7def2d0894692d5afd37d6eb19, type: 2}
  m_IsPrefabAsset: 0
--- !u!1 &807384816 stripped
GameObject:
  m_CorrespondingSourceObject: {fileID: 1296843433217048, guid: 46c25b00d174c7e469f9ac0e0f8308cc,
    type: 2}
  m_PrefabInternal: {fileID: 977966222}
--- !u!224 &807384817 stripped
RectTransform:
  m_CorrespondingSourceObject: {fileID: 224110078943391066, guid: 46c25b00d174c7e469f9ac0e0f8308cc,
    type: 2}
  m_PrefabInternal: {fileID: 977966222}
--- !u!114 &807384818
MonoBehaviour:
  m_ObjectHideFlags: 0
  m_CorrespondingSourceObject: {fileID: 0}
  m_PrefabInternal: {fileID: 0}
  m_GameObject: {fileID: 807384816}
  m_Enabled: 1
  m_EditorHideFlags: 0
  m_Script: {fileID: 11500000, guid: 6e7e5b2b41949784389fed6e423fe42b, type: 3}
  m_Name: 
  m_EditorClassIdentifier: 
  notificationObject: {fileID: 807384816}
  notificationAnimator: {fileID: 807384819}
  titleObject: {fileID: 1787295574}
  descriptionObject: {fileID: 809897033}
  titleText: EXAMPLE TITLE
  descriptionText: EXAMPLE DESCRIPTION
  animationNameIn: Fade Effect
  animationNameOut: Fade Out
--- !u!95 &807384819 stripped
Animator:
  m_CorrespondingSourceObject: {fileID: 95090682082272914, guid: 46c25b00d174c7e469f9ac0e0f8308cc,
    type: 2}
  m_PrefabInternal: {fileID: 977966222}
--- !u!114 &809897033 stripped
MonoBehaviour:
  m_CorrespondingSourceObject: {fileID: 114373501679180474, guid: 46c25b00d174c7e469f9ac0e0f8308cc,
    type: 2}
  m_PrefabInternal: {fileID: 977966222}
  m_Script: {fileID: 708705254, guid: f5f67c52d1564df4a8936ccd202a3bd8, type: 3}
--- !u!1001 &977966222
Prefab:
  m_ObjectHideFlags: 0
  serializedVersion: 2
  m_Modification:
    m_TransformParent: {fileID: 493324190}
    m_Modifications:
    - target: {fileID: 224110078943391066, guid: 46c25b00d174c7e469f9ac0e0f8308cc,
        type: 2}
      propertyPath: m_LocalPosition.x
      value: 0
      objectReference: {fileID: 0}
    - target: {fileID: 224110078943391066, guid: 46c25b00d174c7e469f9ac0e0f8308cc,
        type: 2}
      propertyPath: m_LocalPosition.y
      value: 0
      objectReference: {fileID: 0}
    - target: {fileID: 224110078943391066, guid: 46c25b00d174c7e469f9ac0e0f8308cc,
        type: 2}
      propertyPath: m_LocalPosition.z
      value: 0
      objectReference: {fileID: 0}
    - target: {fileID: 224110078943391066, guid: 46c25b00d174c7e469f9ac0e0f8308cc,
        type: 2}
      propertyPath: m_LocalRotation.x
      value: -0
      objectReference: {fileID: 0}
    - target: {fileID: 224110078943391066, guid: 46c25b00d174c7e469f9ac0e0f8308cc,
        type: 2}
      propertyPath: m_LocalRotation.y
      value: -0
      objectReference: {fileID: 0}
    - target: {fileID: 224110078943391066, guid: 46c25b00d174c7e469f9ac0e0f8308cc,
        type: 2}
      propertyPath: m_LocalRotation.z
      value: -0
      objectReference: {fileID: 0}
    - target: {fileID: 224110078943391066, guid: 46c25b00d174c7e469f9ac0e0f8308cc,
        type: 2}
      propertyPath: m_LocalRotation.w
      value: 1
      objectReference: {fileID: 0}
    - target: {fileID: 224110078943391066, guid: 46c25b00d174c7e469f9ac0e0f8308cc,
        type: 2}
      propertyPath: m_RootOrder
      value: 2
      objectReference: {fileID: 0}
    - target: {fileID: 224110078943391066, guid: 46c25b00d174c7e469f9ac0e0f8308cc,
        type: 2}
      propertyPath: m_AnchoredPosition.x
      value: 0
      objectReference: {fileID: 0}
    - target: {fileID: 224110078943391066, guid: 46c25b00d174c7e469f9ac0e0f8308cc,
        type: 2}
      propertyPath: m_AnchoredPosition.y
      value: -30
      objectReference: {fileID: 0}
    - target: {fileID: 224110078943391066, guid: 46c25b00d174c7e469f9ac0e0f8308cc,
        type: 2}
      propertyPath: m_SizeDelta.x
      value: 175
      objectReference: {fileID: 0}
    - target: {fileID: 224110078943391066, guid: 46c25b00d174c7e469f9ac0e0f8308cc,
        type: 2}
      propertyPath: m_SizeDelta.y
      value: 60
      objectReference: {fileID: 0}
    - target: {fileID: 224110078943391066, guid: 46c25b00d174c7e469f9ac0e0f8308cc,
        type: 2}
      propertyPath: m_AnchorMin.x
      value: 0.5
      objectReference: {fileID: 0}
    - target: {fileID: 224110078943391066, guid: 46c25b00d174c7e469f9ac0e0f8308cc,
        type: 2}
      propertyPath: m_AnchorMin.y
      value: 1
      objectReference: {fileID: 0}
    - target: {fileID: 224110078943391066, guid: 46c25b00d174c7e469f9ac0e0f8308cc,
        type: 2}
      propertyPath: m_AnchorMax.x
      value: 0.5
      objectReference: {fileID: 0}
    - target: {fileID: 224110078943391066, guid: 46c25b00d174c7e469f9ac0e0f8308cc,
        type: 2}
      propertyPath: m_AnchorMax.y
      value: 1
      objectReference: {fileID: 0}
    - target: {fileID: 224110078943391066, guid: 46c25b00d174c7e469f9ac0e0f8308cc,
        type: 2}
      propertyPath: m_Pivot.x
      value: 0.5
      objectReference: {fileID: 0}
    - target: {fileID: 224110078943391066, guid: 46c25b00d174c7e469f9ac0e0f8308cc,
        type: 2}
      propertyPath: m_Pivot.y
      value: 0.5
      objectReference: {fileID: 0}
    - target: {fileID: 1296843433217048, guid: 46c25b00d174c7e469f9ac0e0f8308cc, type: 2}
      propertyPath: m_IsActive
      value: 1
      objectReference: {fileID: 0}
    - target: {fileID: 225190305594086614, guid: 46c25b00d174c7e469f9ac0e0f8308cc,
        type: 2}
      propertyPath: m_Alpha
      value: 1
      objectReference: {fileID: 0}
    - target: {fileID: 95090682082272914, guid: 46c25b00d174c7e469f9ac0e0f8308cc,
        type: 2}
      propertyPath: m_Controller
      value: 
      objectReference: {fileID: 9100000, guid: a89d67d8a2ce6b14d852fad6c6d2b16f, type: 2}
    m_RemovedComponents: []
  m_SourcePrefab: {fileID: 100100000, guid: 46c25b00d174c7e469f9ac0e0f8308cc, type: 2}
  m_IsPrefabAsset: 0
--- !u!114 &980160255 stripped
MonoBehaviour:
  m_CorrespondingSourceObject: {fileID: 114531314782951884, guid: 61db1f75e1a0bc84a9e6e1cffcd47b99,
    type: 2}
  m_PrefabInternal: {fileID: 616141318}
  m_Script: {fileID: 708705254, guid: f5f67c52d1564df4a8936ccd202a3bd8, type: 3}
--- !u!1 &1030236186 stripped
GameObject:
  m_CorrespondingSourceObject: {fileID: 1672687250203324, guid: 460c5f7def2d0894692d5afd37d6eb19,
    type: 2}
  m_PrefabInternal: {fileID: 632612511}
--- !u!224 &1030236187 stripped
RectTransform:
  m_CorrespondingSourceObject: {fileID: 224794015048916152, guid: 460c5f7def2d0894692d5afd37d6eb19,
    type: 2}
  m_PrefabInternal: {fileID: 632612511}
--- !u!114 &1030236188
MonoBehaviour:
  m_ObjectHideFlags: 0
  m_CorrespondingSourceObject: {fileID: 0}
  m_PrefabInternal: {fileID: 0}
  m_GameObject: {fileID: 1030236186}
  m_Enabled: 1
  m_EditorHideFlags: 0
  m_Script: {fileID: 11500000, guid: 6e7e5b2b41949784389fed6e423fe42b, type: 3}
  m_Name: 
  m_EditorClassIdentifier: 
  notificationObject: {fileID: 1030236186}
  notificationAnimator: {fileID: 1030236189}
  titleObject: {fileID: 2145887015}
  descriptionObject: {fileID: 1883647165}
  titleText: EXAMPLE TITLE
  descriptionText: EXAMPLE DESCRIPTION
  animationNameIn: Slipping Effect
  animationNameOut: Slipping Out
--- !u!95 &1030236189 stripped
Animator:
  m_CorrespondingSourceObject: {fileID: 95214273260916380, guid: 460c5f7def2d0894692d5afd37d6eb19,
    type: 2}
  m_PrefabInternal: {fileID: 632612511}
--- !u!1 &1032386059
GameObject:
  m_ObjectHideFlags: 0
  m_CorrespondingSourceObject: {fileID: 0}
  m_PrefabInternal: {fileID: 0}
  serializedVersion: 6
  m_Component:
  - component: {fileID: 1032386060}
  - component: {fileID: 1032386062}
  - component: {fileID: 1032386061}
  m_Layer: 5
  m_Name: Panel
  m_TagString: Untagged
  m_Icon: {fileID: 0}
  m_NavMeshLayer: 0
  m_StaticEditorFlags: 0
  m_IsActive: 1
--- !u!224 &1032386060
RectTransform:
  m_ObjectHideFlags: 0
  m_CorrespondingSourceObject: {fileID: 0}
  m_PrefabInternal: {fileID: 0}
  m_GameObject: {fileID: 1032386059}
  m_LocalRotation: {x: 0, y: 0, z: 0, w: 1}
  m_LocalPosition: {x: 0, y: 0, z: 0}
  m_LocalScale: {x: 1, y: 1, z: 1}
  m_Children:
  - {fileID: 453484758}
  - {fileID: 443226600}
  - {fileID: 2138757780}
  - {fileID: 1631143141}
  m_Father: {fileID: 493324190}
  m_RootOrder: 5
  m_LocalEulerAnglesHint: {x: 0, y: 0, z: 0}
  m_AnchorMin: {x: 0, y: 0}
  m_AnchorMax: {x: 1, y: 0}
  m_AnchoredPosition: {x: 0, y: 69}
  m_SizeDelta: {x: 0, y: 138}
  m_Pivot: {x: 0.5, y: 0.5}
--- !u!114 &1032386061
MonoBehaviour:
  m_ObjectHideFlags: 0
  m_CorrespondingSourceObject: {fileID: 0}
  m_PrefabInternal: {fileID: 0}
  m_GameObject: {fileID: 1032386059}
  m_Enabled: 1
  m_EditorHideFlags: 0
  m_Script: {fileID: -405508275, guid: f70555f144d8491a825f0804e09c671c, type: 3}
  m_Name: 
  m_EditorClassIdentifier: 
  m_Padding:
    m_Left: 0
    m_Right: 0
    m_Top: 0
    m_Bottom: 0
  m_ChildAlignment: 4
  m_Spacing: 10
  m_ChildForceExpandWidth: 0
  m_ChildForceExpandHeight: 0
  m_ChildControlWidth: 0
  m_ChildControlHeight: 0
--- !u!222 &1032386062
CanvasRenderer:
  m_ObjectHideFlags: 0
  m_CorrespondingSourceObject: {fileID: 0}
  m_PrefabInternal: {fileID: 0}
  m_GameObject: {fileID: 1032386059}
  m_CullTransparentMesh: 0
--- !u!114 &1053110649 stripped
MonoBehaviour:
  m_CorrespondingSourceObject: {fileID: 114980571886064182, guid: d550d1b631b47924485fed63a06aca2e,
    type: 2}
  m_PrefabInternal: {fileID: 1695736642}
  m_Script: {fileID: 708705254, guid: f5f67c52d1564df4a8936ccd202a3bd8, type: 3}
--- !u!1001 &1297269712
Prefab:
  m_ObjectHideFlags: 0
  serializedVersion: 2
  m_Modification:
    m_TransformParent: {fileID: 1032386060}
    m_Modifications:
    - target: {fileID: 114866056047139538, guid: 8f569e837df7b6b4eb1a443ba50fff62,
        type: 2}
      propertyPath: m_OnClick.m_PersistentCalls.m_Calls.Array.size
      value: 1
      objectReference: {fileID: 0}
    - target: {fileID: 224035209889628444, guid: 8f569e837df7b6b4eb1a443ba50fff62,
        type: 2}
      propertyPath: m_LocalPosition.x
      value: 0
      objectReference: {fileID: 0}
    - target: {fileID: 224035209889628444, guid: 8f569e837df7b6b4eb1a443ba50fff62,
        type: 2}
      propertyPath: m_LocalPosition.y
      value: 0
      objectReference: {fileID: 0}
    - target: {fileID: 224035209889628444, guid: 8f569e837df7b6b4eb1a443ba50fff62,
        type: 2}
      propertyPath: m_LocalPosition.z
      value: 0
      objectReference: {fileID: 0}
    - target: {fileID: 224035209889628444, guid: 8f569e837df7b6b4eb1a443ba50fff62,
        type: 2}
      propertyPath: m_LocalRotation.x
      value: -0
      objectReference: {fileID: 0}
    - target: {fileID: 224035209889628444, guid: 8f569e837df7b6b4eb1a443ba50fff62,
        type: 2}
      propertyPath: m_LocalRotation.y
      value: -0
      objectReference: {fileID: 0}
    - target: {fileID: 224035209889628444, guid: 8f569e837df7b6b4eb1a443ba50fff62,
        type: 2}
      propertyPath: m_LocalRotation.z
      value: -0
      objectReference: {fileID: 0}
    - target: {fileID: 224035209889628444, guid: 8f569e837df7b6b4eb1a443ba50fff62,
        type: 2}
      propertyPath: m_LocalRotation.w
      value: 1
      objectReference: {fileID: 0}
    - target: {fileID: 224035209889628444, guid: 8f569e837df7b6b4eb1a443ba50fff62,
        type: 2}
      propertyPath: m_RootOrder
      value: 0
      objectReference: {fileID: 0}
    - target: {fileID: 224035209889628444, guid: 8f569e837df7b6b4eb1a443ba50fff62,
        type: 2}
      propertyPath: m_AnchoredPosition.x
      value: 331.65735
      objectReference: {fileID: 0}
    - target: {fileID: 224035209889628444, guid: 8f569e837df7b6b4eb1a443ba50fff62,
        type: 2}
      propertyPath: m_AnchoredPosition.y
      value: -69
      objectReference: {fileID: 0}
    - target: {fileID: 224035209889628444, guid: 8f569e837df7b6b4eb1a443ba50fff62,
        type: 2}
      propertyPath: m_SizeDelta.x
      value: 170
      objectReference: {fileID: 0}
    - target: {fileID: 224035209889628444, guid: 8f569e837df7b6b4eb1a443ba50fff62,
        type: 2}
      propertyPath: m_SizeDelta.y
      value: 40
      objectReference: {fileID: 0}
    - target: {fileID: 224035209889628444, guid: 8f569e837df7b6b4eb1a443ba50fff62,
        type: 2}
      propertyPath: m_AnchorMin.x
      value: 0
      objectReference: {fileID: 0}
    - target: {fileID: 224035209889628444, guid: 8f569e837df7b6b4eb1a443ba50fff62,
        type: 2}
      propertyPath: m_AnchorMin.y
      value: 1
      objectReference: {fileID: 0}
    - target: {fileID: 224035209889628444, guid: 8f569e837df7b6b4eb1a443ba50fff62,
        type: 2}
      propertyPath: m_AnchorMax.x
      value: 0
      objectReference: {fileID: 0}
    - target: {fileID: 224035209889628444, guid: 8f569e837df7b6b4eb1a443ba50fff62,
        type: 2}
      propertyPath: m_AnchorMax.y
      value: 1
      objectReference: {fileID: 0}
    - target: {fileID: 224035209889628444, guid: 8f569e837df7b6b4eb1a443ba50fff62,
        type: 2}
      propertyPath: m_Pivot.x
      value: 0.5
      objectReference: {fileID: 0}
    - target: {fileID: 224035209889628444, guid: 8f569e837df7b6b4eb1a443ba50fff62,
        type: 2}
      propertyPath: m_Pivot.y
      value: 0.5
      objectReference: {fileID: 0}
    - target: {fileID: 114420109816551794, guid: 8f569e837df7b6b4eb1a443ba50fff62,
        type: 2}
      propertyPath: m_Text
      value: FADING NOTIFICATION
      objectReference: {fileID: 0}
    - target: {fileID: 114992588607235212, guid: 8f569e837df7b6b4eb1a443ba50fff62,
        type: 2}
      propertyPath: m_Text
      value: FADING NOTIFICATION
      objectReference: {fileID: 0}
    - target: {fileID: 114866056047139538, guid: 8f569e837df7b6b4eb1a443ba50fff62,
        type: 2}
      propertyPath: m_OnClick.m_PersistentCalls.m_Calls.Array.data[0].m_Mode
      value: 1
      objectReference: {fileID: 0}
    - target: {fileID: 114866056047139538, guid: 8f569e837df7b6b4eb1a443ba50fff62,
        type: 2}
      propertyPath: m_OnClick.m_PersistentCalls.m_Calls.Array.data[0].m_CallState
      value: 2
      objectReference: {fileID: 0}
    - target: {fileID: 114866056047139538, guid: 8f569e837df7b6b4eb1a443ba50fff62,
        type: 2}
      propertyPath: m_OnClick.m_PersistentCalls.m_Calls.Array.data[0].m_Target
      value: 
      objectReference: {fileID: 807384818}
    - target: {fileID: 114866056047139538, guid: 8f569e837df7b6b4eb1a443ba50fff62,
        type: 2}
      propertyPath: m_OnClick.m_PersistentCalls.m_Calls.Array.data[0].m_MethodName
      value: ShowNotification
      objectReference: {fileID: 0}
    - target: {fileID: 114866056047139538, guid: 8f569e837df7b6b4eb1a443ba50fff62,
        type: 2}
      propertyPath: m_OnClick.m_PersistentCalls.m_Calls.Array.data[0].m_Arguments.m_ObjectArgumentAssemblyTypeName
      value: UnityEngine.Object, UnityEngine
      objectReference: {fileID: 0}
    - target: {fileID: 1427455557309824, guid: 8f569e837df7b6b4eb1a443ba50fff62, type: 2}
      propertyPath: m_Name
      value: Fading Button
      objectReference: {fileID: 0}
    m_RemovedComponents: []
  m_SourcePrefab: {fileID: 100100000, guid: 8f569e837df7b6b4eb1a443ba50fff62, type: 2}
  m_IsPrefabAsset: 0
--- !u!224 &1631143141 stripped
RectTransform:
  m_CorrespondingSourceObject: {fileID: 224035209889628444, guid: 8f569e837df7b6b4eb1a443ba50fff62,
    type: 2}
  m_PrefabInternal: {fileID: 1924035651}
--- !u!1 &1688343244 stripped
GameObject:
  m_CorrespondingSourceObject: {fileID: 1089496222792300, guid: d550d1b631b47924485fed63a06aca2e,
    type: 2}
  m_PrefabInternal: {fileID: 1695736642}
--- !u!224 &1688343245 stripped
RectTransform:
  m_CorrespondingSourceObject: {fileID: 224367729101762942, guid: d550d1b631b47924485fed63a06aca2e,
    type: 2}
  m_PrefabInternal: {fileID: 1695736642}
--- !u!114 &1688343246
MonoBehaviour:
  m_ObjectHideFlags: 0
  m_CorrespondingSourceObject: {fileID: 0}
  m_PrefabInternal: {fileID: 0}
  m_GameObject: {fileID: 1688343244}
  m_Enabled: 1
  m_EditorHideFlags: 0
  m_Script: {fileID: 11500000, guid: 6e7e5b2b41949784389fed6e423fe42b, type: 3}
  m_Name: 
  m_EditorClassIdentifier: 
  notificationObject: {fileID: 1688343244}
  notificationAnimator: {fileID: 1688343250}
  titleObject: {fileID: 1053110649}
  descriptionObject: {fileID: 462579744}
  titleText: EXAMPLE TITLE
  descriptionText: EXAMPLE DESCRIPTION
  animationNameIn: Slippery Effect
  animationNameOut: Slippery Out
--- !u!95 &1688343250
Animator:
  serializedVersion: 3
  m_ObjectHideFlags: 0
  m_CorrespondingSourceObject: {fileID: 0}
  m_PrefabInternal: {fileID: 0}
  m_GameObject: {fileID: 1688343244}
  m_Enabled: 1
  m_Avatar: {fileID: 0}
  m_Controller: {fileID: 9100000, guid: 60af3a4a75e941d4491960f9a529e031, type: 2}
  m_CullingMode: 0
  m_UpdateMode: 0
  m_ApplyRootMotion: 0
  m_LinearVelocityBlending: 0
  m_WarningMessage: 
  m_HasTransformHierarchy: 1
  m_AllowConstantClipSamplingOptimization: 1
  m_KeepAnimatorControllerStateOnDisable: 0
--- !u!1001 &1695736642
Prefab:
  m_ObjectHideFlags: 0
  serializedVersion: 2
  m_Modification:
    m_TransformParent: {fileID: 493324190}
    m_Modifications:
    - target: {fileID: 224367729101762942, guid: d550d1b631b47924485fed63a06aca2e,
        type: 2}
      propertyPath: m_LocalPosition.x
      value: 0
      objectReference: {fileID: 0}
    - target: {fileID: 224367729101762942, guid: d550d1b631b47924485fed63a06aca2e,
        type: 2}
      propertyPath: m_LocalPosition.y
      value: 0
      objectReference: {fileID: 0}
    - target: {fileID: 224367729101762942, guid: d550d1b631b47924485fed63a06aca2e,
        type: 2}
      propertyPath: m_LocalPosition.z
      value: 0
      objectReference: {fileID: 0}
    - target: {fileID: 224367729101762942, guid: d550d1b631b47924485fed63a06aca2e,
        type: 2}
      propertyPath: m_LocalRotation.x
      value: -0
      objectReference: {fileID: 0}
    - target: {fileID: 224367729101762942, guid: d550d1b631b47924485fed63a06aca2e,
        type: 2}
      propertyPath: m_LocalRotation.y
      value: -0
      objectReference: {fileID: 0}
    - target: {fileID: 224367729101762942, guid: d550d1b631b47924485fed63a06aca2e,
        type: 2}
      propertyPath: m_LocalRotation.z
      value: -0
      objectReference: {fileID: 0}
    - target: {fileID: 224367729101762942, guid: d550d1b631b47924485fed63a06aca2e,
        type: 2}
      propertyPath: m_LocalRotation.w
      value: 1
      objectReference: {fileID: 0}
    - target: {fileID: 224367729101762942, guid: d550d1b631b47924485fed63a06aca2e,
        type: 2}
      propertyPath: m_RootOrder
      value: 1
      objectReference: {fileID: 0}
    - target: {fileID: 224367729101762942, guid: d550d1b631b47924485fed63a06aca2e,
        type: 2}
      propertyPath: m_AnchoredPosition.x
      value: 0
      objectReference: {fileID: 0}
    - target: {fileID: 224367729101762942, guid: d550d1b631b47924485fed63a06aca2e,
        type: 2}
      propertyPath: m_AnchoredPosition.y
      value: -30
      objectReference: {fileID: 0}
    - target: {fileID: 224367729101762942, guid: d550d1b631b47924485fed63a06aca2e,
        type: 2}
      propertyPath: m_SizeDelta.x
      value: 175
      objectReference: {fileID: 0}
    - target: {fileID: 224367729101762942, guid: d550d1b631b47924485fed63a06aca2e,
        type: 2}
      propertyPath: m_SizeDelta.y
      value: 60
      objectReference: {fileID: 0}
    - target: {fileID: 224367729101762942, guid: d550d1b631b47924485fed63a06aca2e,
        type: 2}
      propertyPath: m_AnchorMin.x
      value: 0.5
      objectReference: {fileID: 0}
    - target: {fileID: 224367729101762942, guid: d550d1b631b47924485fed63a06aca2e,
        type: 2}
      propertyPath: m_AnchorMin.y
      value: 1
      objectReference: {fileID: 0}
    - target: {fileID: 224367729101762942, guid: d550d1b631b47924485fed63a06aca2e,
        type: 2}
      propertyPath: m_AnchorMax.x
      value: 0.5
      objectReference: {fileID: 0}
    - target: {fileID: 224367729101762942, guid: d550d1b631b47924485fed63a06aca2e,
        type: 2}
      propertyPath: m_AnchorMax.y
      value: 1
      objectReference: {fileID: 0}
    - target: {fileID: 224367729101762942, guid: d550d1b631b47924485fed63a06aca2e,
        type: 2}
      propertyPath: m_Pivot.x
      value: 0.5
      objectReference: {fileID: 0}
    - target: {fileID: 224367729101762942, guid: d550d1b631b47924485fed63a06aca2e,
        type: 2}
      propertyPath: m_Pivot.y
      value: 0.5
      objectReference: {fileID: 0}
    - target: {fileID: 224273695099839652, guid: d550d1b631b47924485fed63a06aca2e,
        type: 2}
      propertyPath: m_LocalPosition.y
      value: 0
      objectReference: {fileID: 0}
    - target: {fileID: 1089496222792300, guid: d550d1b631b47924485fed63a06aca2e, type: 2}
      propertyPath: m_IsActive
      value: 1
      objectReference: {fileID: 0}
    - target: {fileID: 95002559072271212, guid: d550d1b631b47924485fed63a06aca2e,
        type: 2}
      propertyPath: m_Controller
      value: 
      objectReference: {fileID: 9100000, guid: f5f47599ca45e1349b7ba0abbee138ed, type: 2}
    - target: {fileID: 225902829413710866, guid: d550d1b631b47924485fed63a06aca2e,
        type: 2}
      propertyPath: m_Alpha
      value: 1
      objectReference: {fileID: 0}
    - target: {fileID: 1089496222792300, guid: d550d1b631b47924485fed63a06aca2e, type: 2}
      propertyPath: m_Name
      value: Slippery Notification
      objectReference: {fileID: 0}
    m_RemovedComponents: []
  m_SourcePrefab: {fileID: 100100000, guid: d550d1b631b47924485fed63a06aca2e, type: 2}
  m_IsPrefabAsset: 0
--- !u!114 &1787295574 stripped
MonoBehaviour:
  m_CorrespondingSourceObject: {fileID: 114519701004773008, guid: 46c25b00d174c7e469f9ac0e0f8308cc,
    type: 2}
  m_PrefabInternal: {fileID: 977966222}
  m_Script: {fileID: 708705254, guid: f5f67c52d1564df4a8936ccd202a3bd8, type: 3}
--- !u!1 &1839138671 stripped
GameObject:
  m_CorrespondingSourceObject: {fileID: 1350301964240770, guid: 61db1f75e1a0bc84a9e6e1cffcd47b99,
    type: 2}
  m_PrefabInternal: {fileID: 616141318}
--- !u!224 &1839138672 stripped
RectTransform:
  m_CorrespondingSourceObject: {fileID: 224602918499771590, guid: 61db1f75e1a0bc84a9e6e1cffcd47b99,
    type: 2}
  m_PrefabInternal: {fileID: 616141318}
--- !u!114 &1839138673
MonoBehaviour:
  m_ObjectHideFlags: 0
  m_CorrespondingSourceObject: {fileID: 0}
  m_PrefabInternal: {fileID: 0}
  m_GameObject: {fileID: 1839138671}
  m_Enabled: 1
  m_EditorHideFlags: 0
  m_Script: {fileID: 11500000, guid: 6e7e5b2b41949784389fed6e423fe42b, type: 3}
  m_Name: 
  m_EditorClassIdentifier: 
  notificationObject: {fileID: 1839138671}
  notificationAnimator: {fileID: 1839138674}
  titleObject: {fileID: 980160255}
  descriptionObject: {fileID: 2144619035}
  titleText: EXAMPLE TITLE
  descriptionText: EXAMPLE DESCRIPTION
  animationNameIn: Popup Effect
  animationNameOut: Popup Out
--- !u!95 &1839138674 stripped
Animator:
  m_CorrespondingSourceObject: {fileID: 95651952683340316, guid: 61db1f75e1a0bc84a9e6e1cffcd47b99,
    type: 2}
  m_PrefabInternal: {fileID: 616141318}
--- !u!1 &1842245220
GameObject:
  m_ObjectHideFlags: 0
  m_CorrespondingSourceObject: {fileID: 0}
  m_PrefabInternal: {fileID: 0}
  serializedVersion: 6
  m_Component:
  - component: {fileID: 1842245224}
  - component: {fileID: 1842245223}
  - component: {fileID: 1842245222}
  - component: {fileID: 1842245221}
  m_Layer: 0
  m_Name: Main Camera
  m_TagString: MainCamera
  m_Icon: {fileID: 0}
  m_NavMeshLayer: 0
  m_StaticEditorFlags: 0
  m_IsActive: 1
--- !u!81 &1842245221
AudioListener:
  m_ObjectHideFlags: 0
  m_CorrespondingSourceObject: {fileID: 0}
  m_PrefabInternal: {fileID: 0}
  m_GameObject: {fileID: 1842245220}
  m_Enabled: 1
--- !u!124 &1842245222
Behaviour:
  m_ObjectHideFlags: 0
  m_CorrespondingSourceObject: {fileID: 0}
  m_PrefabInternal: {fileID: 0}
  m_GameObject: {fileID: 1842245220}
  m_Enabled: 1
--- !u!20 &1842245223
Camera:
  m_ObjectHideFlags: 0
  m_CorrespondingSourceObject: {fileID: 0}
  m_PrefabInternal: {fileID: 0}
  m_GameObject: {fileID: 1842245220}
  m_Enabled: 1
  serializedVersion: 2
  m_ClearFlags: 1
  m_BackGroundColor: {r: 0.19215687, g: 0.3019608, b: 0.4745098, a: 0}
  m_projectionMatrixMode: 1
  m_SensorSize: {x: 36, y: 24}
  m_LensShift: {x: 0, y: 0}
  m_FocalLength: 50
  m_NormalizedViewPortRect:
    serializedVersion: 2
    x: 0
    y: 0
    width: 1
    height: 1
  near clip plane: 0.3
  far clip plane: 1000
  field of view: 60
  orthographic: 1
  orthographic size: 5
  m_Depth: -1
  m_CullingMask:
    serializedVersion: 2
    m_Bits: 4294967295
  m_RenderingPath: -1
  m_TargetTexture: {fileID: 0}
  m_TargetDisplay: 0
  m_TargetEye: 3
  m_HDR: 1
  m_AllowMSAA: 1
  m_AllowDynamicResolution: 0
  m_ForceIntoRT: 0
  m_OcclusionCulling: 1
  m_StereoConvergence: 10
  m_StereoSeparation: 0.022
--- !u!4 &1842245224
Transform:
  m_ObjectHideFlags: 0
  m_CorrespondingSourceObject: {fileID: 0}
  m_PrefabInternal: {fileID: 0}
  m_GameObject: {fileID: 1842245220}
  m_LocalRotation: {x: 0, y: 0, z: 0, w: 1}
  m_LocalPosition: {x: 0, y: 0, z: -10}
  m_LocalScale: {x: 1, y: 1, z: 1}
  m_Children: []
  m_Father: {fileID: 0}
  m_RootOrder: 0
  m_LocalEulerAnglesHint: {x: 0, y: 0, z: 0}
--- !u!114 &1883647165 stripped
MonoBehaviour:
  m_CorrespondingSourceObject: {fileID: 114462270547782990, guid: 460c5f7def2d0894692d5afd37d6eb19,
    type: 2}
  m_PrefabInternal: {fileID: 632612511}
  m_Script: {fileID: 708705254, guid: f5f67c52d1564df4a8936ccd202a3bd8, type: 3}
--- !u!1 &1892554207
GameObject:
  m_ObjectHideFlags: 0
  m_CorrespondingSourceObject: {fileID: 0}
  m_PrefabInternal: {fileID: 0}
  serializedVersion: 6
  m_Component:
  - component: {fileID: 1892554208}
  - component: {fileID: 1892554210}
  - component: {fileID: 1892554209}
  m_Layer: 5
  m_Name: BG
  m_TagString: Untagged
  m_Icon: {fileID: 0}
  m_NavMeshLayer: 0
  m_StaticEditorFlags: 0
  m_IsActive: 1
--- !u!224 &1892554208
RectTransform:
  m_ObjectHideFlags: 0
  m_CorrespondingSourceObject: {fileID: 0}
  m_PrefabInternal: {fileID: 0}
  m_GameObject: {fileID: 1892554207}
  m_LocalRotation: {x: 0, y: 0, z: 0, w: 1}
  m_LocalPosition: {x: 0, y: 0, z: 0}
  m_LocalScale: {x: 1, y: 1, z: 1}
  m_Children: []
  m_Father: {fileID: 493324190}
  m_RootOrder: 0
  m_LocalEulerAnglesHint: {x: 0, y: 0, z: 0}
  m_AnchorMin: {x: 0, y: 0}
  m_AnchorMax: {x: 1, y: 1}
  m_AnchoredPosition: {x: 0, y: 0}
  m_SizeDelta: {x: 0, y: 0}
  m_Pivot: {x: 0.5, y: 0.5}
--- !u!114 &1892554209
MonoBehaviour:
  m_ObjectHideFlags: 0
  m_CorrespondingSourceObject: {fileID: 0}
  m_PrefabInternal: {fileID: 0}
  m_GameObject: {fileID: 1892554207}
  m_Enabled: 1
  m_EditorHideFlags: 0
  m_Script: {fileID: -765806418, guid: f70555f144d8491a825f0804e09c671c, type: 3}
  m_Name: 
  m_EditorClassIdentifier: 
  m_Material: {fileID: 0}
  m_Color: {r: 1, g: 1, b: 1, a: 1}
  m_RaycastTarget: 1
  m_OnCullStateChanged:
    m_PersistentCalls:
      m_Calls: []
    m_TypeName: UnityEngine.UI.MaskableGraphic+CullStateChangedEvent, UnityEngine.UI,
      Version=1.0.0.0, Culture=neutral, PublicKeyToken=null
  m_Sprite: {fileID: 0}
  m_Type: 0
  m_PreserveAspect: 0
  m_FillCenter: 1
  m_FillMethod: 4
  m_FillAmount: 1
  m_FillClockwise: 1
  m_FillOrigin: 0
--- !u!222 &1892554210
CanvasRenderer:
  m_ObjectHideFlags: 0
  m_CorrespondingSourceObject: {fileID: 0}
  m_PrefabInternal: {fileID: 0}
  m_GameObject: {fileID: 1892554207}
  m_CullTransparentMesh: 0
--- !u!1001 &1924035651
Prefab:
  m_ObjectHideFlags: 0
  serializedVersion: 2
  m_Modification:
    m_TransformParent: {fileID: 1032386060}
    m_Modifications:
    - target: {fileID: 114866056047139538, guid: 8f569e837df7b6b4eb1a443ba50fff62,
        type: 2}
      propertyPath: m_OnClick.m_PersistentCalls.m_Calls.Array.size
      value: 1
      objectReference: {fileID: 0}
    - target: {fileID: 224035209889628444, guid: 8f569e837df7b6b4eb1a443ba50fff62,
        type: 2}
      propertyPath: m_LocalPosition.x
      value: 0
      objectReference: {fileID: 0}
    - target: {fileID: 224035209889628444, guid: 8f569e837df7b6b4eb1a443ba50fff62,
        type: 2}
      propertyPath: m_LocalPosition.y
      value: 0
      objectReference: {fileID: 0}
    - target: {fileID: 224035209889628444, guid: 8f569e837df7b6b4eb1a443ba50fff62,
        type: 2}
      propertyPath: m_LocalPosition.z
      value: 0
      objectReference: {fileID: 0}
    - target: {fileID: 224035209889628444, guid: 8f569e837df7b6b4eb1a443ba50fff62,
        type: 2}
      propertyPath: m_LocalRotation.x
      value: -0
      objectReference: {fileID: 0}
    - target: {fileID: 224035209889628444, guid: 8f569e837df7b6b4eb1a443ba50fff62,
        type: 2}
      propertyPath: m_LocalRotation.y
      value: -0
      objectReference: {fileID: 0}
    - target: {fileID: 224035209889628444, guid: 8f569e837df7b6b4eb1a443ba50fff62,
        type: 2}
      propertyPath: m_LocalRotation.z
      value: -0
      objectReference: {fileID: 0}
    - target: {fileID: 224035209889628444, guid: 8f569e837df7b6b4eb1a443ba50fff62,
        type: 2}
      propertyPath: m_LocalRotation.w
      value: 1
      objectReference: {fileID: 0}
    - target: {fileID: 224035209889628444, guid: 8f569e837df7b6b4eb1a443ba50fff62,
        type: 2}
      propertyPath: m_RootOrder
      value: 3
      objectReference: {fileID: 0}
    - target: {fileID: 224035209889628444, guid: 8f569e837df7b6b4eb1a443ba50fff62,
        type: 2}
      propertyPath: m_AnchoredPosition.x
      value: 878.65735
      objectReference: {fileID: 0}
    - target: {fileID: 224035209889628444, guid: 8f569e837df7b6b4eb1a443ba50fff62,
        type: 2}
      propertyPath: m_AnchoredPosition.y
      value: -69
      objectReference: {fileID: 0}
    - target: {fileID: 224035209889628444, guid: 8f569e837df7b6b4eb1a443ba50fff62,
        type: 2}
      propertyPath: m_SizeDelta.x
      value: 178
      objectReference: {fileID: 0}
    - target: {fileID: 224035209889628444, guid: 8f569e837df7b6b4eb1a443ba50fff62,
        type: 2}
      propertyPath: m_SizeDelta.y
      value: 40
      objectReference: {fileID: 0}
    - target: {fileID: 224035209889628444, guid: 8f569e837df7b6b4eb1a443ba50fff62,
        type: 2}
      propertyPath: m_AnchorMin.x
      value: 0
      objectReference: {fileID: 0}
    - target: {fileID: 224035209889628444, guid: 8f569e837df7b6b4eb1a443ba50fff62,
        type: 2}
      propertyPath: m_AnchorMin.y
      value: 1
      objectReference: {fileID: 0}
    - target: {fileID: 224035209889628444, guid: 8f569e837df7b6b4eb1a443ba50fff62,
        type: 2}
      propertyPath: m_AnchorMax.x
      value: 0
      objectReference: {fileID: 0}
    - target: {fileID: 224035209889628444, guid: 8f569e837df7b6b4eb1a443ba50fff62,
        type: 2}
      propertyPath: m_AnchorMax.y
      value: 1
      objectReference: {fileID: 0}
    - target: {fileID: 224035209889628444, guid: 8f569e837df7b6b4eb1a443ba50fff62,
        type: 2}
      propertyPath: m_Pivot.x
      value: 0.5
      objectReference: {fileID: 0}
    - target: {fileID: 224035209889628444, guid: 8f569e837df7b6b4eb1a443ba50fff62,
        type: 2}
      propertyPath: m_Pivot.y
      value: 0.5
      objectReference: {fileID: 0}
    - target: {fileID: 114420109816551794, guid: 8f569e837df7b6b4eb1a443ba50fff62,
        type: 2}
      propertyPath: m_Text
      value: SLIPPING NOTIFICATION
      objectReference: {fileID: 0}
    - target: {fileID: 114992588607235212, guid: 8f569e837df7b6b4eb1a443ba50fff62,
        type: 2}
      propertyPath: m_Text
      value: SLIPPING NOTIFICATION
      objectReference: {fileID: 0}
    - target: {fileID: 114866056047139538, guid: 8f569e837df7b6b4eb1a443ba50fff62,
        type: 2}
      propertyPath: m_OnClick.m_PersistentCalls.m_Calls.Array.data[0].m_Mode
      value: 1
      objectReference: {fileID: 0}
    - target: {fileID: 114866056047139538, guid: 8f569e837df7b6b4eb1a443ba50fff62,
        type: 2}
      propertyPath: m_OnClick.m_PersistentCalls.m_Calls.Array.data[0].m_CallState
      value: 2
      objectReference: {fileID: 0}
    - target: {fileID: 114866056047139538, guid: 8f569e837df7b6b4eb1a443ba50fff62,
        type: 2}
      propertyPath: m_OnClick.m_PersistentCalls.m_Calls.Array.data[0].m_Target
      value: 
      objectReference: {fileID: 1030236188}
    - target: {fileID: 114866056047139538, guid: 8f569e837df7b6b4eb1a443ba50fff62,
        type: 2}
      propertyPath: m_OnClick.m_PersistentCalls.m_Calls.Array.data[0].m_MethodName
      value: ShowNotification
      objectReference: {fileID: 0}
    - target: {fileID: 114866056047139538, guid: 8f569e837df7b6b4eb1a443ba50fff62,
        type: 2}
      propertyPath: m_OnClick.m_PersistentCalls.m_Calls.Array.data[0].m_Arguments.m_ObjectArgumentAssemblyTypeName
      value: UnityEngine.Object, UnityEngine
      objectReference: {fileID: 0}
    - target: {fileID: 1427455557309824, guid: 8f569e837df7b6b4eb1a443ba50fff62, type: 2}
      propertyPath: m_Name
      value: Slipping Button
      objectReference: {fileID: 0}
    - target: {fileID: 224035209889628444, guid: 8f569e837df7b6b4eb1a443ba50fff62,
        type: 2}
      propertyPath: m_LocalScale.x
      value: 1
      objectReference: {fileID: 0}
    - target: {fileID: 224035209889628444, guid: 8f569e837df7b6b4eb1a443ba50fff62,
        type: 2}
      propertyPath: m_LocalScale.y
      value: 1
      objectReference: {fileID: 0}
    - target: {fileID: 224035209889628444, guid: 8f569e837df7b6b4eb1a443ba50fff62,
        type: 2}
      propertyPath: m_LocalScale.z
      value: 1
      objectReference: {fileID: 0}
    m_RemovedComponents: []
  m_SourcePrefab: {fileID: 100100000, guid: 8f569e837df7b6b4eb1a443ba50fff62, type: 2}
  m_IsPrefabAsset: 0
--- !u!1 &1945878959
GameObject:
  m_ObjectHideFlags: 0
  m_CorrespondingSourceObject: {fileID: 0}
  m_PrefabInternal: {fileID: 0}
  serializedVersion: 6
  m_Component:
  - component: {fileID: 1945878962}
  - component: {fileID: 1945878961}
  - component: {fileID: 1945878960}
  m_Layer: 0
  m_Name: EventSystem
  m_TagString: Untagged
  m_Icon: {fileID: 0}
  m_NavMeshLayer: 0
  m_StaticEditorFlags: 0
  m_IsActive: 1
--- !u!114 &1945878960
MonoBehaviour:
  m_ObjectHideFlags: 0
  m_CorrespondingSourceObject: {fileID: 0}
  m_PrefabInternal: {fileID: 0}
  m_GameObject: {fileID: 1945878959}
  m_Enabled: 1
  m_EditorHideFlags: 0
  m_Script: {fileID: 1077351063, guid: f70555f144d8491a825f0804e09c671c, type: 3}
  m_Name: 
  m_EditorClassIdentifier: 
  m_HorizontalAxis: Horizontal
  m_VerticalAxis: Vertical
  m_SubmitButton: Submit
  m_CancelButton: Cancel
  m_InputActionsPerSecond: 10
  m_RepeatDelay: 0.5
  m_ForceModuleActive: 0
--- !u!114 &1945878961
MonoBehaviour:
  m_ObjectHideFlags: 0
  m_CorrespondingSourceObject: {fileID: 0}
  m_PrefabInternal: {fileID: 0}
  m_GameObject: {fileID: 1945878959}
  m_Enabled: 1
  m_EditorHideFlags: 0
  m_Script: {fileID: -619905303, guid: f70555f144d8491a825f0804e09c671c, type: 3}
  m_Name: 
  m_EditorClassIdentifier: 
  m_FirstSelected: {fileID: 0}
  m_sendNavigationEvents: 1
  m_DragThreshold: 5
--- !u!4 &1945878962
Transform:
  m_ObjectHideFlags: 0
  m_CorrespondingSourceObject: {fileID: 0}
  m_PrefabInternal: {fileID: 0}
  m_GameObject: {fileID: 1945878959}
  m_LocalRotation: {x: 0, y: 0, z: 0, w: 1}
  m_LocalPosition: {x: 0, y: 0, z: 0}
  m_LocalScale: {x: 1, y: 1, z: 1}
  m_Children: []
  m_Father: {fileID: 0}
  m_RootOrder: 1
  m_LocalEulerAnglesHint: {x: 0, y: 0, z: 0}
--- !u!224 &2138757780 stripped
RectTransform:
  m_CorrespondingSourceObject: {fileID: 224035209889628444, guid: 8f569e837df7b6b4eb1a443ba50fff62,
    type: 2}
  m_PrefabInternal: {fileID: 152240096}
--- !u!114 &2144619035 stripped
MonoBehaviour:
  m_CorrespondingSourceObject: {fileID: 114024266490664420, guid: 61db1f75e1a0bc84a9e6e1cffcd47b99,
    type: 2}
  m_PrefabInternal: {fileID: 616141318}
  m_Script: {fileID: 708705254, guid: f5f67c52d1564df4a8936ccd202a3bd8, type: 3}
--- !u!114 &2145887015 stripped
MonoBehaviour:
  m_CorrespondingSourceObject: {fileID: 114714564058449202, guid: 460c5f7def2d0894692d5afd37d6eb19,
    type: 2}
  m_PrefabInternal: {fileID: 632612511}
  m_Script: {fileID: 708705254, guid: f5f67c52d1564df4a8936ccd202a3bd8, type: 3}
